02 - Data Visualisation 1
…
library(tidyverse)

This doesn't appear in your Global Environment, but it's there.

Note: This is one of many data sets built into the tidyverse package. R has a lot of these, useful for showing examples where your code doesn't work!

The Star Wars Tibble

We know the data is a tibble, so we can just print the data name:

# look at first 10 entries
starwars

## # A tibble: 87 x 13
##    name     height  mass hair_color skin_color eye_color birth_year gender
##    <chr>     <int> <dbl> <chr>      <chr>      <chr>          <dbl> <chr> 
##  1 Luke Sk~    172  77.0 blond      fair       blue            19.0 male  
##  2 C-3PO       167  75.0 <NA>       gold       yellow         112   <NA>  
##  3 R2-D2        96  32.0 <NA>       white, bl~ red             33.0 <NA>  
##  4 Darth V~    202 136   none       white      yellow          41.9 male  
##  5 Leia Or~    150  49.0 brown      light      brown           19.0 female
##  6 Owen La~    178 120   brown, gr~ light      blue            52.0 male  
##  7 Beru Wh~    165  75.0 brown      light      blue            47.0 female
##  8 R5-D4        97  32.0 <NA>       white, red red             NA   <NA>  
##  9 Biggs D~    183  84.0 black      light      brown           24.0 male  
## 10 Obi-Wan~    182  77.0 auburn, w~ fair       blue-gray       57.0 male  
## # ... with 77 more rows, and 5 more variables: homeworld <chr>,
## #   species <chr>, films <list>, vehicles <list>, starships <list>
…
