10 Reporting Reproducible Research
…
Eta Squared and Omega Squared

First, make some data for a 3 by 2 ANOVA.

# load the data
data("ToothGrowth")
# convert to tibble and make dose a factor
tooth <- ToothGrowth %>%
  mutate(dose = factor(dose)) %>%
  as.tibble()
# see the output
tooth

## # A tibble: 60 x 3
##      len supp  dose 
##    <dbl> <fct> <fct>
##  1  4.20 VC    0.5  
##  2 11.5  VC    0.5  
##  3  7.30 VC    0.5  
##  4  5.80 VC    0.5  
##  5  6.40 VC    0.5  
##  6 10.0  VC    0.5  
##  7 11.2  VC    0.5  
##  8 11.2  VC    0.5  
##  9  5.20 VC    0.5  
## 10  7.00 VC    0.5  
## # ... with 50 more rows
…
