03 - Data Visualisation 2
…
Loading Data

For this recap and the main part of the lessons, we'll use some simulated data of reaction times.

Load the .csv file from the inputs folder. read_csv() is a quick way to load data as a tibble.

rt_data <- read_csv("inputs/rt_data.csv")

Understanding the Data

Let's see what the data looks like:

rt_data

## # A tibble: 60 x 4
##    particpant gender response_condition reaction_time
##         <int> <chr>  <chr>                      <dbl>
##  1          1 male   match                        340
##  2          2 female match                        350
##  3          3 male   match                        273
##  4          4 female match                        299
##  5          5 female match                        263
##  6          6 male   match                        319
##  7          7 female match                        307
##  8          8 female match                        369
##  9          9 male   match                        293
## 10         10 male   match                        285
## # ... with 50 more rows
…
