R for Psych
…
When we use read_csv() this function tries to guess the data type contained within any column. Basically, if all the data in a column are numbers, then it’ll be parsed as a numeric data type. If even one cell in a column is text, the whole column will be parsed as text. This can cause problems if most of the data are numbers and you want to do some calculations with this column, as you can’t add, subract, or divide with text columns!

Often, dates are parsed as datetimes, which allows for some easy calculations for differences in times. But, our completion_time column was parsed as a character. Why? Because this column contains two datetimes separated by an underscore. It looks like the researchers (me) were too lazy to actually calculate the completion times, and just threw the start and end times togerther into one column!

4.2.2 Wide and Long Data

Now we’ve loaded the data, and understand how R reads data, let’s look back at wide and long data formats.

4.2.2.1 Wide Data

In the wide data format, each row is a participant (ID). We have columns representing all of the programming languages reported to be known by the participants. If a participant knows the language, they get a 1 in this column, otherwise they have an NA. We also have several other columns covering other information gathered.

demo_wide

## # A tibble: 29 x 14
##    ID    `C++` FORTRAN JavaScript Python     R  Ruby LANGUAGE progress
##    <chr> <int>   <int>      <int>  <int> <int> <int> <chr>    <chr>   
##  1 22        1       1          1     NA    NA    NA OTHER    FINISH  
##  2 23        1      NA         NA     NA    NA    NA <NA>     no      
##  3 24       NA       1         NA     NA    NA    NA ENGLISH  END     
##  4 25        1       1         NA     NA    NA    NA <NA>     ethics  
##  5 26       NA      NA         NA      1    NA     1 english  ethics  
##  6 27       NA       1          1     NA    NA    NA ENGLISH  END     
##  7 28       NA      NA         NA     NA     1     1 <NA>     ethics  
##  8 29       NA      NA          1     NA    NA    NA english  ethics  
##  9 30       NA       1         NA     NA    NA    NA <NA>     <NA>    
## 10 A2        1       1          1     NA    NA    NA English  END     
## # ... with 19 more rows, and 5 more variables: gender <chr>, age <int>,
## #   tester <chr>, funRec <chr>, completion_time <chr>

4.2.2.2 Long Data

With the long data format, we have each ID for our data in one column, and the measurements for these variables in each cell. The main difference here is that we have a column at the end called computer_language which simply lists the language each participant knows. This cuts down on the need for redundant columns for a computer language when a participant doesn’t know that language. Compare the languages known for participant 22 in this data set and how it’s represented in the wide data set.

In order to display this properly, I’ll cut out the columns tester, funRec, and completion time, when printing for this website, but you needn’t do this in R.

demo_long

## # A tibble: 54 x 6
##    ID    LANGUAGE progress gender   age computer_language
##    <chr> <chr>    <chr>    <chr>  <int> <chr>            
##  1 22    OTHER    FINISH   female    30 C++              
##  2 22    OTHER    FINISH   female    30 FORTRAN          
##  3 22    OTHER    FINISH   female    30 JavaScript       
##  4 23    <NA>     no       male      30 C++              
##  5 24    ENGLISH  END      female    30 FORTRAN          
##  6 25    <NA>     ethics   male      18 C++              
##  7 25    <NA>     ethics   male      18 FORTRAN          
##  8 26    english  ethics   male      31 Python           
##  9 26    english  ethics   male      31 Ruby             
## 10 27    ENGLISH  END      female    44 FORTRAN          
## # ... with 44 more rows
…
In this function, we have to specify a few things. As always, with our tidyverse functions we need to tell R which data set on which to perform the function.

We have to say what we will call our new column which contains the headings of the columns we want to gather. Here, we call it prog_lang, and it will contain the column names for each programming language. (Normally, I’d use a more readable name, but I want to show as many columns for this data on the website.)

Next, we need to specify a value, which will contain the numbers from the programming language columns we’ve gathered together. This will essentially tell us whether or not people know that language or not.

Finally, we need to give the function the columns to gather together. We can do this by name, or by number. Since our programming language columns are all together, from column number 2 to 7, we can just specify the range of 2:7.

gather(data = demo_wide,
       key = prog_lang,
       value = known,
       2:7
       )

## # A tibble: 174 x 8
##    ID    LANGUAGE progress gender   age tester prog_lang known
##    <chr> <chr>    <chr>    <chr>  <int> <chr>  <chr>     <int>
##  1 22    OTHER    FINISH   female    30 GW     C++           1
##  2 23    <NA>     no       male      30 GW     C++           1
##  3 24    ENGLISH  END      female    30 GW     C++          NA
##  4 25    <NA>     ethics   male      18 GW     C++           1
##  5 26    english  ethics   male      31 GW     C++          NA
##  6 27    ENGLISH  END      female    44 GW     C++          NA
##  7 28    <NA>     ethics   male      23 GW     C++          NA
##  8 29    english  ethics   male      34 GW     C++          NA
##  9 30    <NA>     <NA>     female    32 GW     C++          NA
## 10 A2    English  END      female    33 RHB    C++           1
## # ... with 164 more rows
…
To fix this, we can use another function, called arrange, which takes a data argument and a column by which to arrange the data.

4.3.1.1 The Pipe

At this point, I’ll introduce you to a new way of writing our commands which is better when we want to apply several functions. Instead of nesting it all together, we can write our commands from left to right, like how we read English text. Here, we can use the pipe %>% at the end of a line, which can be read as “and then do…”. Below, we simply give our data.frame, demo_wide, and use the pipe to apply the gather function. This is the same code as above, just represented in a different way. Read this like, “take our data, and then, gather the columns together.”

demo_wide %>% 
  gather(
    key = prog_lang,
    value = known,
    2:7
    )

## # A tibble: 174 x 8
##    ID    LANGUAGE progress gender   age tester prog_lang known
##    <chr> <chr>    <chr>    <chr>  <int> <chr>  <chr>     <int>
##  1 22    OTHER    FINISH   female    30 GW     C++           1
##  2 23    <NA>     no       male      30 GW     C++           1
##  3 24    ENGLISH  END      female    30 GW     C++          NA
##  4 25    <NA>     ethics   male      18 GW     C++           1
##  5 26    english  ethics   male      31 GW     C++          NA
##  6 27    ENGLISH  END      female    44 GW     C++          NA
##  7 28    <NA>     ethics   male      23 GW     C++          NA
##  8 29    english  ethics   male      34 GW     C++          NA
##  9 30    <NA>     <NA>     female    32 GW     C++          NA
## 10 A2    English  END      female    33 RHB    C++           1
## # ... with 164 more rows

Still, we’re left with the same grouping problem, so we can apply another function, arrange() at the end to arrange the data by ID.

demo_wide %>% 
  gather(
    key = prog_lang,
    value = known,
    2:7
    ) %>%
  arrange(ID)

## # A tibble: 174 x 8
##    ID    LANGUAGE progress gender   age tester prog_lang  known
##    <chr> <chr>    <chr>    <chr>  <int> <chr>  <chr>      <int>
##  1 22    OTHER    FINISH   female    30 GW     C++            1
##  2 22    OTHER    FINISH   female    30 GW     FORTRAN        1
##  3 22    OTHER    FINISH   female    30 GW     JavaScript     1
##  4 22    OTHER    FINISH   female    30 GW     Python        NA
##  5 22    OTHER    FINISH   female    30 GW     R             NA
##  6 22    OTHER    FINISH   female    30 GW     Ruby          NA
##  7 23    <NA>     no       male      30 GW     C++            1
##  8 23    <NA>     no       male      30 GW     FORTRAN       NA
##  9 23    <NA>     no       male      30 GW     JavaScript    NA
## 10 23    <NA>     no       male      30 GW     Python        NA
## # ... with 164 more rows
…
We’ll save this data under the name demo_gathered for comparison with the long formatted data set we already loaded.

demo_gathered <- demo_wide %>% 
  gather(
    key = prog_lang,
    value = known,
    2:7,
    na.rm = TRUE
    ) %>%
  arrange(ID) %>%
  select(-known)

demo_gathered

## # A tibble: 54 x 7
##    ID    LANGUAGE progress gender   age tester prog_lang 
##    <chr> <chr>    <chr>    <chr>  <int> <chr>  <chr>     
##  1 22    OTHER    FINISH   female    30 GW     C++       
##  2 22    OTHER    FINISH   female    30 GW     FORTRAN   
##  3 22    OTHER    FINISH   female    30 GW     JavaScript
##  4 23    <NA>     no       male      30 GW     C++       
##  5 24    ENGLISH  END      female    30 GW     FORTRAN   
##  6 25    <NA>     ethics   male      18 GW     C++       
##  7 25    <NA>     ethics   male      18 GW     FORTRAN   
##  8 26    english  ethics   male      31 GW     Python    
##  9 26    english  ethics   male      31 GW     Ruby      
## 10 27    ENGLISH  END      female    44 GW     FORTRAN   
## # ... with 44 more rows
…
4.3.2 Separating Columns

In our wide formatted data, we have two columns which store two data points in each cell: funRec has information on whether people found the experiment fun, and whether they’d recommend it to others. Let’s split this into separate columns. We just need to supply the name of the column to separate col, and what you want it split into, as a list of the names the columns should take, into.

As in previous examples, I’ll remove the middle rows from the data here, but feel free to print them all yourself in R. I’ve presented the code to do this below.

Remember, if we want to supply multiple names, we need to concatenate (c) these names together.

demo_gathered %>%
  separate(
    col = funRec,
    into = c("fun", "recommend")
    )

## # A tibble: 54 x 5
##    ID    tester fun   recommend completion_time                        
##    <chr> <chr>  <chr> <chr>     <chr>                                  
##  1 22    GW     7     no        2018-03-22 23:06:11_2018-03-23 00:25:51
##  2 22    GW     7     no        2018-03-22 23:06:11_2018-03-23 00:25:51
##  3 22    GW     7     no        2018-03-22 23:06:11_2018-03-23 00:25:51
##  4 23    GW     6     yes       2018-03-26 00:30:20_2018-03-26 02:15:52
##  5 24    GW     4     yes       2018-03-21 11:09:38_2018-03-21 12:16:28
##  6 25    GW     0     no        2018-03-25 13:03:58_2018-03-25 14:45:25
##  7 25    GW     0     no        2018-03-25 13:03:58_2018-03-25 14:45:25
##  8 26    GW     4     no        2018-03-24 06:46:30_2018-03-24 08:17:29
##  9 26    GW     4     no        2018-03-24 06:46:30_2018-03-24 08:17:29
## 10 27    GW     5     no        2018-03-21 03:23:57_2018-03-21 04:28:01
## # ... with 44 more rows

Take a look at the two new columns. They are both parsed as characters, even though the fun column only contains numbers. We can ask R to convert the data types for the split column during in the separate function using convert = TRUE.

demo_gathered %>%
  separate(
    col = funRec,
    into = c("fun", "recommend"),
    convert = TRUE
    )

## # A tibble: 54 x 5
##    ID    tester   fun recommend completion_time                        
##    <chr> <chr>  <int> <chr>     <chr>                                  
##  1 22    GW         7 no        2018-03-22 23:06:11_2018-03-23 00:25:51
##  2 22    GW         7 no        2018-03-22 23:06:11_2018-03-23 00:25:51
##  3 22    GW         7 no        2018-03-22 23:06:11_2018-03-23 00:25:51
##  4 23    GW         6 yes       2018-03-26 00:30:20_2018-03-26 02:15:52
##  5 24    GW         4 yes       2018-03-21 11:09:38_2018-03-21 12:16:28
##  6 25    GW         0 no        2018-03-25 13:03:58_2018-03-25 14:45:25
##  7 25    GW         0 no        2018-03-25 13:03:58_2018-03-25 14:45:25
##  8 26    GW         4 no        2018-03-24 06:46:30_2018-03-24 08:17:29
##  9 26    GW         4 no        2018-03-24 06:46:30_2018-03-24 08:17:29
## 10 27    GW         5 no        2018-03-21 03:23:57_2018-03-21 04:28:01
## # ... with 44 more rows
…
demo_gathered %>%
  separate(
    col = funRec,
    into = c("fun", "recommend"),
    convert = TRUE
    ) %>%
  separate(
    col = completion_time,
    into = c("start_time", "end_time")
    )

## Warning: Expected 2 pieces. Additional pieces discarded in 54 rows [1, 2,
## 3, 4, 5, 6, 7, 8, 9, 10, 11, 12, 13, 14, 15, 16, 17, 18, 19, 20, ...].

## # A tibble: 54 x 6
##    ID    tester   fun recommend start_time end_time
##    <chr> <chr>  <int> <chr>     <chr>      <chr>   
##  1 22    GW         7 no        2018       03      
##  2 22    GW         7 no        2018       03      
##  3 22    GW         7 no        2018       03      
##  4 23    GW         6 yes       2018       03      
##  5 24    GW         4 yes       2018       03      
##  6 25    GW         0 no        2018       03      
##  7 25    GW         0 no        2018       03      
##  8 26    GW         4 no        2018       03      
##  9 26    GW         4 no        2018       03      
## 10 27    GW         5 no        2018       03      
## # ... with 44 more rows
…
# see the data
demo_gathered

## # A tibble: 54 x 6
##    ID    tester   fun recommend start_time          end_time           
##    <chr> <chr>  <int> <chr>     <chr>               <chr>              
##  1 22    GW         7 no        2018-03-22 23:06:11 2018-03-23 00:25:51
##  2 22    GW         7 no        2018-03-22 23:06:11 2018-03-23 00:25:51
##  3 22    GW         7 no        2018-03-22 23:06:11 2018-03-23 00:25:51
##  4 23    GW         6 yes       2018-03-26 00:30:20 2018-03-26 02:15:52
##  5 24    GW         4 yes       2018-03-21 11:09:38 2018-03-21 12:16:28
##  6 25    GW         0 no        2018-03-25 13:03:58 2018-03-25 14:45:25
##  7 25    GW         0 no        2018-03-25 13:03:58 2018-03-25 14:45:25
##  8 26    GW         4 no        2018-03-24 06:46:30 2018-03-24 08:17:29
##  9 26    GW         4 no        2018-03-24 06:46:30 2018-03-24 08:17:29
## 10 27    GW         5 no        2018-03-21 03:23:57 2018-03-21 04:28:01
## # ... with 44 more rows
…
4.3.3 Spreading Data

What if we want to go from long format to wide format? This can be useful if we want to do a paired-samples t-test, where we might want the first scores in one column, and the second scores in another. (We’ll cover t-tests in Lesson 6.)

To make our long data wide, we use the spread() function from tidyr.

To spread our data we need a key, the column containing the values we’d like to make column headers. We then also need a value, indicating the column containing the scores associated with the values. Often, this would be conditions in an experiment and test results. Our problem here is a little more complex. Remember that we dropped the redundant column telling us whether or not people knew a programming language? Well, we need this back so we have a value column to work from. We’ll mutate our data to create this column. To do this, we use the mutate() function from dplyr. (We’ll look at this process in detail in Lesson 5.) Here, we just set everything in our new known column to 1 as we know if a language is present in a participant’s row, then they know it!

demo_gathered %>% 
  mutate(known = 1) %>%
  spread(key = prog_lang, value = known)

## # A tibble: 29 x 11
##    ID      fun recommend start_time    end_time   `C++` FORTRAN JavaScript
##    <chr> <int> <chr>     <chr>         <chr>      <dbl>   <dbl>      <dbl>
##  1 22        7 no        2018-03-22 2~ 2018-03-2~  1.00    1.00       1.00
##  2 23        6 yes       2018-03-26 0~ 2018-03-2~  1.00   NA         NA   
##  3 24        4 yes       2018-03-21 1~ 2018-03-2~ NA       1.00      NA   
##  4 25        0 no        2018-03-25 1~ 2018-03-2~  1.00    1.00      NA   
##  5 26        4 no        2018-03-24 0~ 2018-03-2~ NA      NA         NA   
##  6 27        5 no        2018-03-21 0~ 2018-03-2~ NA       1.00       1.00
##  7 28        0 no        2018-03-25 2~ 2018-03-2~ NA      NA         NA   
##  8 29        6 no        2018-03-24 1~ 2018-03-2~ NA      NA          1.00
##  9 30        1 yes       2018-03-22 0~ 2018-03-2~ NA       1.00      NA   
## 10 A2        4 yes       2018-03-23 0~ 2018-03-2~  1.00    1.00       1.00
## # ... with 19 more rows, and 3 more variables: Python <dbl>, R <dbl>,
## #   Ruby <dbl>
…
Let’s load some raw data for the lexical decision times to see how we might join data together from separate data sets.

lexdec_data <- read_csv("inputs/lexical_decision_raw_data.csv")

To make these examples easier to digest, we’ll simply look at a single trial for an individual participant. Again, to do this we’ll use some subsetting techniques that we’ll go into in more detail in Lesson 5.

# keep only trials (rows) where the word is ant
lexdec_subset <- lexdec_data %>% filter(word == "ant")

How does the data look? We have 26 recorded entries. For two participants, they have missing values (NA) for these trials, indicating that they didn’t complete this trial, or the trial wasn’t recorded.

lexdec_subset

## # A tibble: 25 x 9
##    subject trial native_language word  class  frequency length correct
##    <chr>   <int> <chr>           <chr> <chr>      <dbl>  <int> <chr>  
##  1 A1        157 English         ant   animal      5.35      3 correct
##  2 A3         41 Other           ant   animal      5.35      3 correct
##  3 C          86 English         ant   animal      5.35      3 correct
##  4 D         138 Other           ant   animal      5.35      3 correct
##  5 I         105 Other           ant   animal      5.35      3 correct
##  6 J          43 Other           ant   animal      5.35      3 correct
##  7 K         183 English         ant   animal      5.35      3 correct
##  8 M1        171 English         ant   animal      5.35      3 correct
##  9 M2        117 Other           ant   animal      5.35      3 correct
## 10 P         115 Other           ant   animal      5.35      3 correct
## # ... with 15 more rows, and 1 more variable: RT <dbl>
…
