R for Psych
…
# by name
demo %>% select(ID, 
                LANGUAGE, 
                progress, 
                gender, 
                age, 
                tester, 
                fun,
                recommend,
                start,
                end
                )

## # A tibble: 29 x 10
##    ID    LANGUAGE progress gender   age tester fun   recommend start end  
##    <chr> <chr>    <chr>    <chr>  <int> <chr>  <chr> <chr>     <chr> <chr>
##  1 22    OTHER    FINISH   female    30 GW     7     no        2018~ 2018~
##  2 23    <NA>     no       male      30 GW     6     yes       2018~ 2018~
##  3 24    ENGLISH  END      female    30 GW     4     yes       2018~ 2018~
##  4 25    <NA>     ethics   male      18 GW     0     no        2018~ 2018~
##  5 26    english  ethics   male      31 GW     4     no        2018~ 2018~
##  6 27    ENGLISH  END      female    44 GW     5     no        2018~ 2018~
##  7 28    <NA>     ethics   male      23 GW     0     no        2018~ 2018~
##  8 29    english  ethics   male      34 GW     6     no        2018~ 2018~
##  9 30    <NA>     <NA>     female    32 GW     1     yes       2018~ 2018~
## 10 A2    English  END      female    33 RHB    4     yes       2018~ 2018~
## # ... with 19 more rows

# by number
demo %>% select(c(1, 8:16))

## # A tibble: 29 x 10
##    ID    LANGUAGE progress gender   age tester fun   recommend start end  
##    <chr> <chr>    <chr>    <chr>  <int> <chr>  <chr> <chr>     <chr> <chr>
##  1 22    OTHER    FINISH   female    30 GW     7     no        2018~ 2018~
##  2 23    <NA>     no       male      30 GW     6     yes       2018~ 2018~
##  3 24    ENGLISH  END      female    30 GW     4     yes       2018~ 2018~
##  4 25    <NA>     ethics   male      18 GW     0     no        2018~ 2018~
##  5 26    english  ethics   male      31 GW     4     no        2018~ 2018~
##  6 27    ENGLISH  END      female    44 GW     5     no        2018~ 2018~
##  7 28    <NA>     ethics   male      23 GW     0     no        2018~ 2018~
##  8 29    english  ethics   male      34 GW     6     no        2018~ 2018~
##  9 30    <NA>     <NA>     female    32 GW     1     yes       2018~ 2018~
## 10 A2    English  END      female    33 RHB    4     yes       2018~ 2018~
## # ... with 19 more rows

Alternatively, we could have just specified the columns we wanted to drop. To do so, we can tell R to select all columns, except (-) column numbers 2 through 7. Remember, we have to concatenate these values to apply tell R to remove all of these columns, and not just the first one.

This time, we’ll save our data as demo_sub, as we’ve made a subset of our original demographic data.

demo_sub <- demo %>% select(-c(2:7))
demo_sub

## # A tibble: 29 x 10
##    ID    LANGUAGE progress gender   age tester fun   recommend start end  
##    <chr> <chr>    <chr>    <chr>  <int> <chr>  <chr> <chr>     <chr> <chr>
##  1 22    OTHER    FINISH   female    30 GW     7     no        2018~ 2018~
##  2 23    <NA>     no       male      30 GW     6     yes       2018~ 2018~
##  3 24    ENGLISH  END      female    30 GW     4     yes       2018~ 2018~
##  4 25    <NA>     ethics   male      18 GW     0     no        2018~ 2018~
##  5 26    english  ethics   male      31 GW     4     no        2018~ 2018~
##  6 27    ENGLISH  END      female    44 GW     5     no        2018~ 2018~
##  7 28    <NA>     ethics   male      23 GW     0     no        2018~ 2018~
##  8 29    english  ethics   male      34 GW     6     no        2018~ 2018~
##  9 30    <NA>     <NA>     female    32 GW     1     yes       2018~ 2018~
## 10 A2    English  END      female    33 RHB    4     yes       2018~ 2018~
## # ... with 19 more rows
…
matches(regular_expression): this keeps any columns that match a regular expression

num_range("prefix", range): this keeps any columns with a matching prefix and a following range of numbers. For example, `num_range(“measurement”, 1:3) would keep all columns called “measurement1”, “measurement2”, and “measurement3”.

For this simple case here, these aren’t necessary, but they’re good to know for working with larger data sets.

5.4.1 Renaming and Reordering Columns

We can use the rename() function to change our columns names. We have some messy names here, so we’ll look at how we can rename them now. This renaming function takes the order of our new names are equal to our old names. Let’s just overwrite our old subsetted data to change the names.

demo_sub <- demo_sub %>% rename(language = LANGUAGE)
demo_sub

## # A tibble: 29 x 10
##    ID    language progress gender   age tester fun   recommend start end  
##    <chr> <chr>    <chr>    <chr>  <int> <chr>  <chr> <chr>     <chr> <chr>
##  1 22    OTHER    FINISH   female    30 GW     7     no        2018~ 2018~
##  2 23    <NA>     no       male      30 GW     6     yes       2018~ 2018~
##  3 24    ENGLISH  END      female    30 GW     4     yes       2018~ 2018~
##  4 25    <NA>     ethics   male      18 GW     0     no        2018~ 2018~
##  5 26    english  ethics   male      31 GW     4     no        2018~ 2018~
##  6 27    ENGLISH  END      female    44 GW     5     no        2018~ 2018~
##  7 28    <NA>     ethics   male      23 GW     0     no        2018~ 2018~
##  8 29    english  ethics   male      34 GW     6     no        2018~ 2018~
##  9 30    <NA>     <NA>     female    32 GW     1     yes       2018~ 2018~
## 10 A2    English  END      female    33 RHB    4     yes       2018~ 2018~
## # ... with 19 more rows

Finally, what if we want to put the age and gender columns next to the ID column? We can use select() to pick out our first two columns, then everything() to grab every remaining column and stick them on the end.

demo_sub %>% select(ID, age, gender, everything())

## # A tibble: 29 x 10
##    ID      age gender language progress tester fun   recommend start end  
##    <chr> <int> <chr>  <chr>    <chr>    <chr>  <chr> <chr>     <chr> <chr>
##  1 22       30 female OTHER    FINISH   GW     7     no        2018~ 2018~
##  2 23       30 male   <NA>     no       GW     6     yes       2018~ 2018~
##  3 24       30 female ENGLISH  END      GW     4     yes       2018~ 2018~
##  4 25       18 male   <NA>     ethics   GW     0     no        2018~ 2018~
##  5 26       31 male   english  ethics   GW     4     no        2018~ 2018~
##  6 27       44 female ENGLISH  END      GW     5     no        2018~ 2018~
##  7 28       23 male   <NA>     ethics   GW     0     no        2018~ 2018~
##  8 29       34 male   english  ethics   GW     6     no        2018~ 2018~
##  9 30       32 female <NA>     <NA>     GW     1     yes       2018~ 2018~
## 10 A2       33 female English  END      RHB    4     yes       2018~ 2018~
## # ... with 19 more rows
…
# define the units of time, this can be mins, hours, days, etc.
units(transmuted_time$time_diff) <- "mins"

# print the object
transmuted_time

## # A tibble: 29 x 2
##    ID    time_diff        
##    <chr> <time>           
##  1 22    -7.18563218390805
##  2 23    18.6810344827586 
##  3 24    -20.0189655172414
##  4 25    14.5977011494253 
##  5 26    4.13103448275861 
##  6 27    -22.785632183908 
##  7 28    17.4810344827586 
##  8 29    8.14770114942528 
##  9 30    -13.9022988505747
## 10 A2    -5.86896551724138
## # ... with 19 more rows
…
You can see that we have a number of columns, but crucially, we have one where we kept track of the subject’s progress in our experiment. How many labels do we have for this? We can check for the unique labels in oru data using the unique() function. Alternatively, if our data is a factor, then it should have defined levels, so we could use the levels() function. To save time recoding our data types, we’ll just use the unique() function for now.

unique(demo_sub$progress)

## [1] "FINISH" "no"     "END"    "ethics" NA

We have a few labels: FINISH, no, END, ethics, and NA. It looks like we have a slightly messy data set, as both FINISH and END indicate the same point of progress; these subjects completed the experiment. If we just want to subset our data to those who finished the experiment, we could use these labels to filter out observations.

5.6.1 Filtering with Logical Operations

demo_sub %>% filter(progress == "FINISH" | progress == "END")

## # A tibble: 23 x 11
##    ID    language progress gender       age tester fun   recommend
##    <chr> <chr>    <chr>    <chr>      <int> <chr>  <chr> <chr>    
##  1 22    OTHER    FINISH   female        30 GW     7     no       
##  2 24    ENGLISH  END      female        30 GW     4     yes      
##  3 27    ENGLISH  END      female        44 GW     5     no       
##  4 A2    English  END      female        33 RHB    4     yes      
##  5 A3    Other    END      male          20 RHB    3     no       
##  6 C     English  END      female        31 RHB    1     yes      
##  7 D     Other    END      non-binary    33 RHB    5     yes      
##  8 I     Other    END      male          36 RHB    5     no       
##  9 J     Other    END      female        28 RHB    6     yes      
## 10 K     English  END      male          33 RHB    1     yes      
## # ... with 13 more rows, and 3 more variables: start <dttm>, end <dttm>,
## #   time <time>

Read the above command like, “filter to observations where the progress is equal to FINISH or the progress is equal to END”. Remember, to check if something is equal to another thing, we have to use double equals (==) rather than a single equal (=) as a single equal is an assignment operator. Finally, the pipe between these two statements is an OR operator, so we keep any observations that are equal to FINISH or equal to END.

This type of filtering can get confusing if we have more than 2 conditions that we would like to check. One way around this is to use the %in% operator, which evaluates to TRUE if an observation is in a sequence that you provide. The best way to see how this works is to try it out yourself:

demo_sub %>% filter(progress %in% c("FINISH", "END"))

## # A tibble: 23 x 11
##    ID    language progress gender       age tester fun   recommend
##    <chr> <chr>    <chr>    <chr>      <int> <chr>  <chr> <chr>    
##  1 22    OTHER    FINISH   female        30 GW     7     no       
##  2 24    ENGLISH  END      female        30 GW     4     yes      
##  3 27    ENGLISH  END      female        44 GW     5     no       
##  4 A2    English  END      female        33 RHB    4     yes      
##  5 A3    Other    END      male          20 RHB    3     no       
##  6 C     English  END      female        31 RHB    1     yes      
##  7 D     Other    END      non-binary    33 RHB    5     yes      
##  8 I     Other    END      male          36 RHB    5     no       
##  9 J     Other    END      female        28 RHB    6     yes      
## 10 K     English  END      male          33 RHB    1     yes      
## # ... with 13 more rows, and 3 more variables: start <dttm>, end <dttm>,
## #   time <time>
…
Also note that by default filter() excludes cases that don’t meet your criteria, or are NAs, so if you want to keep NAs you have to ask for them explicitly. Let’s look at filtering to only those who finished the experiment (FINISH or END) and those who we’re unsure about (NA).

Here, we look for observations for progress that are equal to FINISH or equal to END or which are NAs.

demo_sub %>% filter(progress == "FINISH" | progress == "END" | is.na(progress))

## # A tibble: 24 x 11
##    ID    language progress gender       age tester fun   recommend
##    <chr> <chr>    <chr>    <chr>      <int> <chr>  <chr> <chr>    
##  1 22    OTHER    FINISH   female        30 GW     7     no       
##  2 24    ENGLISH  END      female        30 GW     4     yes      
##  3 27    ENGLISH  END      female        44 GW     5     no       
##  4 30    <NA>     <NA>     female        32 GW     1     yes      
##  5 A2    English  END      female        33 RHB    4     yes      
##  6 A3    Other    END      male          20 RHB    3     no       
##  7 C     English  END      female        31 RHB    1     yes      
##  8 D     Other    END      non-binary    33 RHB    5     yes      
##  9 I     Other    END      male          36 RHB    5     no       
## 10 J     Other    END      female        28 RHB    6     yes      
## # ... with 14 more rows, and 3 more variables: start <dttm>, end <dttm>,
## #   time <time>
…
5.7 Arranging Data

Often, with psychological data, we want to order our columns by the subject number, then their observations. This makes it easy to think about how individuals progressed through the experiment.

We can arrange our data using arrange() from dplyr. Again, this function takes the data, and then sorts by any columns that you give it. This function defaults to having lowest mnumbers first. So, if we sorted by subject ID and trial ID, you would get the lowest value for subjects first, and their lowest number for trials first.

We have a simple case here, where we only have one observation for each participant. Here, numbers come before letters, but those with numbered IDs were tested at the end of the experiment. How, then, should we order the data?

One option is to order the data such that IDs appear in descending order (using the desc() function).

demo_sub %>% arrange(desc(ID))

## # A tibble: 29 x 11
##    ID    language progress gender       age tester fun   recommend
##    <chr> <chr>    <chr>    <chr>      <int> <chr>  <chr> <chr>    
##  1 Z     Other    END      female        28 RHB    0     no       
##  2 W2    English  END      female        29 RHB    1     yes      
##  3 W1    English  END      non-binary    31 RHB    1     no       
##  4 V     Other    END      male          37 RHB    7     no       
##  5 T2    Other    END      male          27 RHB    0     yes      
##  6 T1    English  END      male          22 RHB    4     no       
##  7 S     English  END      female        25 RHB    4     no       
##  8 R3    English  END      female        35 RHB    0     no       
##  9 R2    English  END      non-binary    27 RHB    5     no       
## 10 R1    English  END      female        31 RHB    6     yes      
## # ... with 19 more rows, and 3 more variables: start <dttm>, end <dttm>,
## #   time <time>

Alternatively, we know that the tester GW ran the experiment last, so we could sort by tester. But let’s say that we want to sort by who tested them first, and then by who started the experiment first. To do this, we simply need to provide the start and tester columns to the function.

demo_sub %>% arrange(tester, start)

## # A tibble: 29 x 11
##    ID    language progress gender   age tester fun   recommend
##    <chr> <chr>    <chr>    <chr>  <int> <chr>  <chr> <chr>    
##  1 27    ENGLISH  END      female    44 GW     5     no       
##  2 24    ENGLISH  END      female    30 GW     4     yes      
##  3 30    <NA>     <NA>     female    32 GW     1     yes      
##  4 22    OTHER    FINISH   female    30 GW     7     no       
##  5 26    english  ethics   male      31 GW     4     no       
##  6 29    english  ethics   male      34 GW     6     no       
##  7 25    <NA>     ethics   male      18 GW     0     no       
##  8 28    <NA>     ethics   male      23 GW     0     no       
##  9 23    <NA>     no       male      30 GW     6     yes      
## 10 S     English  END      female    25 RHB    4     no       
## # ... with 19 more rows, and 3 more variables: start <dttm>, end <dttm>,
## #   time <time>

Again, we can flip the order for tester by using the desc() function.

demo_sub %>% arrange(desc(tester), start)

## # A tibble: 29 x 11
##    ID    language progress gender   age tester fun   recommend
##    <chr> <chr>    <chr>    <chr>  <int> <chr>  <chr> <chr>    
##  1 S     English  END      female    25 RHB    4     no       
##  2 J     Other    END      female    28 RHB    6     yes      
##  3 M2    Other    END      female    27 RHB    4     no       
##  4 W2    English  END      female    29 RHB    1     yes      
##  5 Z     Other    END      female    28 RHB    0     no       
##  6 R1    English  END      female    31 RHB    6     yes      
##  7 R3    English  END      female    35 RHB    0     no       
##  8 C     English  END      female    31 RHB    1     yes      
##  9 A2    English  END      female    33 RHB    4     yes      
## 10 V     Other    END      male      37 RHB    7     no       
## # ... with 19 more rows, and 3 more variables: start <dttm>, end <dttm>,
## #   time <time>
…
