R for Psych
…
We’ll follow Hadley Wickham’s approach in R for Data Science by getting you working on producing some pretty graphs from the outset to see how ggplot works. After that, we’ll look at how ggplot can handle several data types. Along the way, we’ll add some customisation to our graphs so you can see the flexibility of this package.

2.1 Getting Started

First, we’ll load the packages necessary for this class. Nicely, ggplot2 is part of the tidyverse family, so we don’t need to load this separately to the other packages in our library.

Sorry to have made you create your own data frames before, but R and it’s packages often come with in-built data sets. We’ll use the starwars data set from dplyr() which loaded with the tidyverse package. Why star wars? It’s convenient, and I’m a big nerd, so indulge me. Because this is built into R, you won’t see it in your Data pane in the Global Environment. That doesn’t matter for us, but rest assured it is there. Let’s get a sense of how this data looks. How about printing the first 10 entries?

2.1.1 The Star Wars Tibble

# look at first 10 entries
starwars

## # A tibble: 87 x 13
##    name     height  mass hair_color skin_color eye_color birth_year gender
##    <chr>     <int> <dbl> <chr>      <chr>      <chr>          <dbl> <chr> 
##  1 Luke Sk~    172  77.0 blond      fair       blue            19.0 male  
##  2 C-3PO       167  75.0 <NA>       gold       yellow         112   <NA>  
##  3 R2-D2        96  32.0 <NA>       white, bl~ red             33.0 <NA>  
##  4 Darth V~    202 136   none       white      yellow          41.9 male  
##  5 Leia Or~    150  49.0 brown      light      brown           19.0 female
##  6 Owen La~    178 120   brown, gr~ light      blue            52.0 male  
##  7 Beru Wh~    165  75.0 brown      light      blue            47.0 female
##  8 R5-D4        97  32.0 <NA>       white, red red             NA   <NA>  
##  9 Biggs D~    183  84.0 black      light      brown           24.0 male  
## 10 Obi-Wan~    182  77.0 auburn, w~ fair       blue-gray       57.0 male  
## # ... with 77 more rows, and 5 more variables: homeworld <chr>,
## #   species <chr>, films <list>, vehicles <list>, starships <list>
…
