R for Psych
…
1.5.0.1 Data Frames and Tibbles

Now, in the real world, if you tested IQs youd typically have this data stored in a table somewhere prior to reading it into R. So lets pair the data together into a table in R. The most useful way to do this is to create a data.frame. But, since weve already loaded the tidyverse, we may as well use the built in tibbles. These are like data frames, but they have some different defaults that make working in the tidyverse easier.

IQ_data <- tibble::tibble(
  participant_number = participant, 
  pet_id = pet, 
  IQ = IQ_score
  )

Whats the main advantage of using a tibble over a data.frame here? Tibbles dont automatically convert certain data types. With data.frame, character data is automatically converted to a factor. This can be useful, but not always. The thing I like most is that tibbles show the data type under the column name. This is taken from str() which tells you the structure of your data. Also, tibbles default to printing the first 10 rows of data when you type their name in the console. This will stop you from getting overwhelmed by a massive printout if you have a lot of data. Lets see all of this in action.

IQ_data

## # A tibble: 100 x 3
##    participant_number pet_id    IQ
##                 <dbl> <chr>  <dbl>
##  1               1.00 cat      147
##  2               1.00 cat      160
##  3               3.00 dog      185
##  4               4.00 cat      122
##  5               5.00 dog      157
##  6               6.00 dog      152
##  7               7.00 cat      152
##  8               8.00 dog      119
##  9               9.00 dog      131
## 10              10.0  dog      160
## # ... with 90 more rows

If you want more than 10 rows, or a specific number of columns, tell R thats what youd like. Here, weve asked for the first 12 rows, and the width of the table to be infinity so that R prints out all columns even if they dont fit on 1 row in the console. However, with only 3 columns, that isnt an issue here.

print(IQ_data, n = 12, width = Inf)

## # A tibble: 100 x 3
##    participant_number pet_id    IQ
##                 <dbl> <chr>  <dbl>
##  1               1.00 cat      147
##  2               1.00 cat      160
##  3               3.00 dog      185
##  4               4.00 cat      122
##  5               5.00 dog      157
##  6               6.00 dog      152
##  7               7.00 cat      152
##  8               8.00 dog      119
##  9               9.00 dog      131
## 10              10.0  dog      160
## 11              11.0  dog      138
## 12              12.0  dog      165
## # ... with 88 more rows
…
## [1] 147

Now, lets calculate the mean on the correct column in the tibble. Personally, I prefer using $ for cases like this. But, feel free to use any of the above methods.

mean(IQ_data$IQ)

## [1] 150.17

We can combine what we learned above about c() to access multiple columns at once:

IQ_data[, c("participant_number", "IQ")]

## # A tibble: 100 x 2
##    participant_number    IQ
##                 <dbl> <dbl>
##  1               1.00   147
##  2               1.00   160
##  3               3.00   185
##  4               4.00   122
##  5               5.00   157
##  6               6.00   152
##  7               7.00   152
##  8               8.00   119
##  9               9.00   131
## 10              10.0    160
## # ... with 90 more rows
…
