R for Psych
…
For calculating effect sizes from ANOVA designs, well use the sjstats package. Here, well see how we can simply calculate different alternatives from the r family of effect sizes using this package. For this example, well use the ToothGrowth data set that we used in Chapter 7. Remember, this looks at the effect of different supplements, and doses of those supplements, on tooth growth in guinea pigs.

# load the data
data("ToothGrowth")

# convert to tibble and make dose a factor
tooth <- ToothGrowth %>%
  mutate(dose = factor(dose)) %>%
  as.tibble()

# see the output
tooth

## # A tibble: 60 x 3
##      len supp  dose 
##    <dbl> <fct> <fct>
##  1   4.2 VC    0.5  
##  2  11.5 VC    0.5  
##  3   7.3 VC    0.5  
##  4   5.8 VC    0.5  
##  5   6.4 VC    0.5  
##  6  10   VC    0.5  
##  7  11.2 VC    0.5  
##  8  11.2 VC    0.5  
##  9   5.2 VC    0.5  
## 10   7   VC    0.5  
## # ... with 50 more rows
…
