R for Psych
…
## Parsed with column specification:
## cols(
##   .default = col_integer(),
##   Household_Income = col_double(),
##   Population_Inequality_Gini_Index = col_double(),
##   Social_Circle_Inequality_Gini_Index = col_double()
## )

## See spec(...) for full column specifications.

corr_data

## # A tibble: 305 x 3
##       ps fair_satisfied support
##    <int>          <dbl>   <dbl>
##  1   233           1.00    5.50
##  2   157           3.50    3.25
##  3   275           5.00    3.75
##  4   111           7.00    2.75
##  5    52           4.50    3.00
##  6    11           2.50    3.75
##  7    76           3.00    4.25
##  8    90           4.50    3.50
##  9    93           4.00    3.75
## 10   104           4.50    3.50
## # ... with 295 more rows
…
