R for Psych
…
# create your design
design <- expand.grid(A = c(-.5, .5), B = c(-.5, .5))

# create table of data
data <- tibble(subject = 1: n,
               A = rep(design$A, n/4),
               B = rep(design$B, n/4)
               )

# look at the data
data

## # A tibble: 60 x 3
##    subject      A      B
##      <int>  <dbl>  <dbl>
##  1       1 -0.500 -0.500
##  2       2  0.500 -0.500
##  3       3 -0.500  0.500
##  4       4  0.500  0.500
##  5       5 -0.500 -0.500
##  6       6  0.500 -0.500
##  7       7 -0.500  0.500
##  8       8  0.500  0.500
##  9       9 -0.500 -0.500
## 10      10  0.500 -0.500
## # ... with 50 more rows
…
# set up coefficients
alpha = 400
beta1 = 30
beta2 = -50
beta3 = -40
err <- rnorm(n, 0, sd = 40)

# create data from the linear model
data$y <- alpha + (beta1*data$A) + (beta2*data$B) + (beta3*data$A*data$B) + err

# see the data
data

## # A tibble: 60 x 4
##    subject      A      B     y
##      <int>  <dbl>  <dbl> <dbl>
##  1       1 -0.500 -0.500   421
##  2       2  0.500 -0.500   472
##  3       3 -0.500  0.500   408
##  4       4  0.500  0.500   443
##  5       5 -0.500 -0.500   423
##  6       6  0.500 -0.500   479
##  7       7 -0.500  0.500   405
##  8       8  0.500  0.500   386
##  9       9 -0.500 -0.500   498
## 10      10  0.500 -0.500   428
## # ... with 50 more rows
…
